     2.10           N: GPS NAV DATA                         RINEX VERSION / TYPE
RTKCONV 2.4.2                           20140620 125126 UTC PGM / RUN BY / DATE 
log: C:\work\Water\rtklib\COM8_140619_152611.ubx            COMMENT             
format: u-blox                                              COMMENT             
                                                            END OF HEADER       
29 14  6 19 15 59 44.0  .540841370821E-03  .272848410532E-11  .000000000000E+00
     .100000000000E+01 -.282812500000E+02  .453304596242E-08  .256404086431E+01
    -.145845115185E-05  .148015609011E-02  .539980828762E-05  .515368848038E+04
     .403184000000E+06  .465661287308E-07 -.307278105259E+01  .465661287308E-07
     .969964073206E+00  .279531250000E+03 -.834615354794E+00 -.817641200895E-08
    -.567880797372E-10  .100000000000E+01  .179700000000E+04  .000000000000E+00
     .240000000000E+01  .000000000000E+00 -.977888703346E-08  .100000000000E+01
     .401196000000E+06  .400000000000E+01
25 14  6 19 16  0  0.0  .248793512583E-04  .113686837722E-12  .000000000000E+00
     .680000000000E+02  .149687500000E+02  .415695886831E-08  .214901688322E+01
     .720843672752E-06  .367667444516E-02  .822544097900E-05  .515360136986E+04
     .403200000000E+06 -.135973095894E-06  .210863203047E+01 -.651925802231E-07
     .976340182636E+00  .229343750000E+03  .706012117999E+00 -.790568644643E-08
     .205008539429E-09  .100000000000E+01  .179700000000E+04  .000000000000E+00
     .240000000000E+01  .000000000000E+00  .512227416039E-08  .680000000000E+02
     .401196000000E+06  .400000000000E+01
31 14  6 19 16  0  0.0  .333956908435E-03 -.113686837722E-12  .000000000000E+00
     .100000000000E+03 -.164375000000E+02  .420696095110E-08 -.299886165849E+01
    -.750645995140E-06  .796286156401E-02  .874139368534E-05  .515356991196E+04
     .403200000000E+06 -.838190317154E-07  .109388672262E+01  .141561031342E-06
     .978191716126E+00  .220156250000E+03 -.634719064151E+00 -.777353808478E-08
    -.170007081477E-09  .100000000000E+01  .179700000000E+04  .000000000000E+00
     .240000000000E+01  .000000000000E+00 -.130385160446E-07  .100000000000E+03
     .401196000000E+06  .400000000000E+01
 5 14  6 19 16  0  0.0 -.364550389349E-03  .284217094304E-11  .000000000000E+00
     .790000000000E+02  .423437500000E+02  .471841082646E-08  .723353973156E+00
     .232830643654E-05  .358843011782E-02  .960007309914E-05  .515361892509E+04
     .403200000000E+06  .186264514923E-07 -.103455072290E+01  .596046447754E-07
     .946938709627E+00  .186281250000E+03  .300322436401E+00 -.814891086342E-08
     .217866217860E-09  .100000000000E+01  .179700000000E+04  .000000000000E+00
     .240000000000E+01  .000000000000E+00 -.102445483208E-07  .790000000000E+02
     .401196000000E+06  .400000000000E+01
 2 14  6 19 16  0  0.0  .502021517605E-03  .216004991671E-11  .000000000000E+00
     .660000000000E+02 -.599375000000E+02  .487448875631E-08 -.165562749958E+01
    -.311248004436E-05  .135998108890E-01  .903196632862E-05  .515362508965E+04
     .403200000000E+06  .236555933952E-06 -.210280418470E+01 -.294297933578E-06
     .939369722165E+00  .194500000000E+03 -.241419418447E+01 -.807533637017E-08
    -.166078346401E-09  .100000000000E+01  .179700000000E+04  .000000000000E+00
     .240000000000E+01  .000000000000E+00 -.204890966415E-07  .660000000000E+02
     .401196000000E+06  .400000000000E+01
21 14  6 19 16  0  0.0 -.367916654795E-03 -.216004991671E-11  .000000000000E+00
     .460000000000E+02 -.571250000000E+02  .491449042254E-08  .239408312194E+01
    -.322610139847E-05  .215361498995E-01  .899843871593E-05  .515374565506E+04
     .403200000000E+06  .121071934700E-06 -.208565550934E+01 -.303611159325E-06
     .932303920006E+00  .186906250000E+03 -.201637044953E+01 -.796104589523E-08
    -.208222959036E-09  .100000000000E+01  .179700000000E+04  .000000000000E+00
     .240000000000E+01  .000000000000E+00 -.111758708954E-07  .460000000000E+02
     .401226000000E+06  .400000000000E+01
12 14  6 19 15 59 44.0  .212597660720E-03  .250111042988E-11  .000000000000E+00
     .200000000000E+02  .150625000000E+02  .388230457071E-08  .291075135922E+01
     .653788447380E-06  .515170267317E-02  .842660665512E-05  .515360821915E+04
     .403184000000E+06 -.968575477600E-07  .215133511830E+01 -.782310962677E-07
     .987658520879E+00  .229250000000E+03  .464356081769E+00 -.770317801114E-08
     .171792870148E-09  .100000000000E+01  .179700000000E+04  .000000000000E+00
     .240000000000E+01  .000000000000E+00 -.121071934700E-07  .200000000000E+02
     .401226000000E+06  .400000000000E+01
23 14  6 19 15 59 44.0 -.299825333059E-04 -.306954461848E-11  .000000000000E+00
     .300000000000E+01  .237187500000E+02  .503913847177E-08 -.129088882003E+01
     .108778476715E-05  .950745295268E-02  .448152422905E-05  .515376756477E+04
     .403184000000E+06  .109896063805E-06  .258451791383E-01 -.119209289551E-06
     .951857400087E+00  .282562500000E+03 -.277387661244E+01 -.844785188694E-08
     .110718897601E-09  .100000000000E+01  .179700000000E+04  .000000000000E+00
     .240000000000E+01  .000000000000E+00 -.200234353542E-07  .300000000000E+01
     .401226000000E+06  .400000000000E+01
